ripplecarryadder_4bit/isim.log
ISim log file
Running: E:\Verilog programs\ripplecarryadder_4bit\ripplecarryadder_4bit_test_isim_beh.exe -intstyle ise -gui -tclbatch isim.cmd -wdb E:/Verilog programs/ripplecarryadder_4bit/ripplecarryadder_4bit_test_isim_beh.wdb 
ISim P.20131013 (signature 0x8ef4fb42)
WARNING: A WEBPACK license was found.
WARNING: Please use Xilinx License Configuration Manager to check out a full ISim license.
WARNING: ISim will run in Lite mode. Please refer to the ISim documentation for more information on the differences between the Lite and the Full version.
This is a Lite version of ISim.
Time resolution is 1 ps
# onerror resume
# wave add /
# run 1000 ns
Simulator is doing circuit initialization process.
Finished circuit initialization process.
a = 0000, b = 0000, cin = 0 : Sum = 0000, Cout = 0
a = 1000, b = 0010, cin = 0 : Sum = 1010, Cout = 0
a = 1000, b = 1000, cin = 0 : Sum = 0000, Cout = 1
a = 0010, b = 1000, cin = 0 : Sum = 1010, Cout = 0
a = 0001, b = 0111, cin = 0 : Sum = 1000, Cout = 0
a = 1010, b = 1011, cin = 0 : Sum = 0101, Cout = 1
a = 1110, b = 1111, cin = 0 : Sum = 1101, Cout = 1
a = 1010, b = 1101, cin = 0 : Sum = 0111, Cout = 1
ISim P.20131013 (signature 0x8ef4fb42)
WARNING: A WEBPACK license was found.
WARNING: Please use Xilinx License Configuration Manager to check out a full ISim license.
WARNING: ISim will run in Lite mode. Please refer to the ISim documentation for more information on the differences between the Lite and the Full version.
This is a Lite version of ISim.
# run 1000 ns
Simulator is doing circuit initialization process.
Finished circuit initialization process.
a = 0000, b = 0000, cin = 0 : Sum = 0000, Cout = 0
a = 1000, b = 0010, cin = 0 : Sum = 1010, Cout = 0
a = 1000, b = 1000, cin = 0 : Sum = 0000, Cout = 1
a = 0010, b = 1000, cin = 0 : Sum = 1010, Cout = 0
a = 0001, b = 0111, cin = 0 : Sum = 1000, Cout = 0
a = 1010, b = 1011, cin = 0 : Sum = 0101, Cout = 1
a = 1110, b = 1111, cin = 0 : Sum = 1101, Cout = 1
a = 1010, b = 1101, cin = 0 : Sum = 0111, Cout = 1
a = 1010, b = 1101, cin = 1 : Sum = 1000, Cout = 1
ISim P.20131013 (signature 0x8ef4fb42)
WARNING: A WEBPACK license was found.
WARNING: Please use Xilinx License Configuration Manager to check out a full ISim license.
WARNING: ISim will run in Lite mode. Please refer to the ISim documentation for more information on the differences between the Lite and the Full version.
This is a Lite version of ISim.
# run 1000 ns
Simulator is doing circuit initialization process.
Finished circuit initialization process.
a = 0000, b = 0000, cin = 0 : Sum = 0000, Cout = 0
a = 1000, b = 0010, cin = 0 : Sum = 1010, Cout = 0
a = 1000, b = 1000, cin = 0 : Sum = 0000, Cout = 1
a = 0010, b = 1000, cin = 0 : Sum = 1010, Cout = 0
a = 0001, b = 0111, cin = 0 : Sum = 1000, Cout = 0
a = 1010, b = 1011, cin = 0 : Sum = 0101, Cout = 1
a = 1110, b = 1111, cin = 0 : Sum = 1101, Cout = 1
a = 1010, b = 1101, cin = 0 : Sum = 0111, Cout = 1
a = 1010, b = 1101, cin = 1 : Sum = 1000, Cout = 1
a = 1000, b = 0010, cin = 1 : Sum = 1011, Cout = 0
a = 1000, b = 1000, cin = 1 : Sum = 0001, Cout = 1
a = 0010, b = 1000, cin = 1 : Sum = 1011, Cout = 0
a = 0001, b = 0111, cin = 1 : Sum = 1001, Cout = 0
a = 1010, b = 1011, cin = 1 : Sum = 0110, Cout = 1
a = 1110, b = 1111, cin = 1 : Sum = 1110, Cout = 1
a = 1010, b = 1101, cin = 1 : Sum = 1000, Cout = 1
